…
    ## Warning in FUN(X[[i]], ...): unable to translate '<U+00DF>' to native encoding

    ## Warning in FUN(X[[i]], ...): unable to translate '<U+00C6>' to native encoding

    ## Warning in FUN(X[[i]], ...): unable to translate '<U+00E6>' to native encoding

    ## Warning in FUN(X[[i]], ...): unable to translate '<U+00D8>' to native encoding

    ## Warning in FUN(X[[i]], ...): unable to translate '<U+00F8>' to native encoding

    ## Warning in FUN(X[[i]], ...): unable to translate '<U+00C5>' to native encoding

    ## Warning in FUN(X[[i]], ...): unable to translate '<U+00E5>' to native encoding

    ## # A tibble: 344 x 14
    ##    dumpster month  year date                weight_tons volume_cubic_ya~
    ##       <dbl> <chr> <dbl> <dttm>                    <dbl>            <dbl>
    ##  1        1 May    2014 2014-05-16 00:00:00        4.31               18
    ##  2        2 May    2014 2014-05-16 00:00:00        2.74               13
    ##  3        3 May    2014 2014-05-16 00:00:00        3.45               15
    ##  4        4 May    2014 2014-05-17 00:00:00        3.1                15
    ##  5        5 May    2014 2014-05-17 00:00:00        4.06               18
    ##  6        6 May    2014 2014-05-20 00:00:00        2.71               13
    ##  7        7 May    2014 2014-05-21 00:00:00        1.91                8
    ##  8        8 May    2014 2014-05-28 00:00:00        3.7                16
    ##  9        9 June   2014 2014-06-05 00:00:00        2.52               14
    ## 10       10 June   2014 2014-06-11 00:00:00        3.76               18
    ## # ... with 334 more rows, and 8 more variables: plastic_bottles <dbl>,
    ## #   polystyrene <dbl>, cigarette_butts <dbl>, glass_bottles <dbl>,
    ## #   grocery_bags <dbl>, chip_bags <dbl>, sports_balls <int>,
    ## #   homes_powered <dbl>
…
precip_2017 = read_xlsx('./data/problem1/Trash-Wheel-Collection-Totals-8-6-19.xlsx',
                      sheet ='2017 Precipitation',skip = 1) %>%
  janitor::clean_names() %>%
  drop_na(month) %>%
  mutate(year = 2017) %>%
  relocate(year)
# combine annual precipitation
month_df = tibble(month = 1:12,
                month_name = month.name)
precip_df = bind_rows(precip_2018,precip_2017)
left_join(precip_df,month_df,by ='month') 
```

    ## # A tibble: 24 x 4
    ##     year month total month_name
    ##    <dbl> <dbl> <dbl> <chr>     
    ##  1  2018     1  0.94 January   
    ##  2  2018     2  4.8  February  
    ##  3  2018     3  2.69 March     
    ##  4  2018     4  4.69 April     
    ##  5  2018     5  9.27 May       
    ##  6  2018     6  4.77 June      
    ##  7  2018     7 10.2  July      
    ##  8  2018     8  6.45 August    
    ##  9  2018     9 10.5  September 
    ## 10  2018    10  2.12 October   
    ## # ... with 14 more rows
…
    ## [1] 0.3770492

``` r
  nyc_tidy_df = nyc_transit_df %>%
  mutate_at(vars(route1:route11),as.character) %>%
  pivot_longer(route1:route11,names_to ='route_name',names_prefix ='route',
               values_to ='route_number') %>%
  drop_na(route_number) %>%
  print() # Reformat the data so that the route number and route name are distinct variables
```

    ## # A tibble: 4,270 x 10
    ##    line  station_name station_latitude station_longitu~ entry vending
    ##    <chr> <chr>                   <dbl>            <dbl> <lgl> <chr>  
    ##  1 4 Av~ 25th St                  40.7            -74.0 TRUE  YES    
    ##  2 4 Av~ 25th St                  40.7            -74.0 TRUE  YES    
    ##  3 4 Av~ 36th St                  40.7            -74.0 TRUE  YES    
    ##  4 4 Av~ 36th St                  40.7            -74.0 TRUE  YES    
    ##  5 4 Av~ 36th St                  40.7            -74.0 TRUE  YES    
    ##  6 4 Av~ 36th St                  40.7            -74.0 TRUE  YES    
    ##  7 4 Av~ 36th St                  40.7            -74.0 TRUE  YES    
    ##  8 4 Av~ 36th St                  40.7            -74.0 TRUE  YES    
    ##  9 4 Av~ 45th St                  40.6            -74.0 TRUE  YES    
    ## 10 4 Av~ 45th St                  40.6            -74.0 TRUE  YES    
    ## # ... with 4,260 more rows, and 4 more variables: entrance_type <chr>,
    ## #   ada <lgl>, route_name <chr>, route_number <chr>
…
